Documentación/Laboratorio1/Archivos/SeñalTriangular.CSV

Model,TBS1102C
Firmware Version,v2015-08-04-prequal4ch70_v1.3

Point Format,Y
Horizontal Units,S
Horizontal Scale,0.02
Sample Interval,0.00016
Filter Frequency,2e+08
Record Length,2000
Gating,0.0% to 100.0%
Probe Attenuation,10
Vertical Units,V
Vertical Offset,0
Vertical Scale,1
Label,
TIME,CH1
-1.600e-01,0.68
-1.598e-01,0.68
-1.597e-01,0.68
-1.595e-01,0.72
-1.594e-01,0.76
-1.592e-01,0.76
-1.590e-01,0.76
-1.589e-01,0.76
-1.587e-01,0.76
-1.586e-01,0.76
-1.584e-01,0.8
-1.582e-01,0.8
-1.581e-01,0.8
-1.579e-01,0.8
-1.578e-01,0.84
-1.576e-01,0.84
-1.574e-01,0.84
-1.573e-01,0.84
-1.571e-01,0.88
-1.570e-01,0.88
-1.568e-01,0.88
-1.566e-01,0.88
-1.565e-01,0.88
-1.563e-01,0.92
-1.562e-01,0.92
-1.560e-01,0.92
-1.558e-01,0.92
-1.557e-01,0.92
-1.555e-01,1
-1.554e-01,0.92
-1.552e-01,0.96
-1.550e-01,0.92
-1.549e-01,1
-1.547e-01,1
-1.546e-01,1
-1.544e-01,1
-1.542e-01,1.04
-1.541e-01,1.04
-1.539e-01,1.16
-1.538e-01,1.04
-1.536e-01,1
-1.534e-01,1.12
-1.533e-01,1.08
-1.531e-01,1.08
-1.530e-01,1.08
-1.528e-01,1.12
-1.526e-01,1.12
-1.525e-01,1.16
-1.523e-01,1.16
-1.522e-01,1.12
-1.520e-01,1.16
-1.518e-01,1.2
-1.517e-01,1.16
-1.515e-01,1.16
-1.514e-01,1.2
-1.512e-01,1.2
-1.510e-01,1.36
-1.509e-01,1.2
-1.507e-01,1.28
-1.506e-01,1.24
-1.504e-01,1.24
-1.502e-01,1.24
-1.501e-01,1.28
-1.499e-01,1.28
-1.498e-01,1.28
-1.496e-01,1.32
-1.494e-01,1.28
-1.493e-01,1.36
-1.491e-01,1.52
-1.490e-01,1.32
-1.488e-01,1.36
-1.486e-01,1.36
-1.485e-01,1.36
-1.483e-01,1.4
-1.482e-01,1.4
-1.480e-01,1.4
-1.478e-01,1.4
-1.477e-01,1.4
-1.475e-01,1.44
-1.474e-01,1.44
-1.472e-01,1.48
-1.470e-01,1.44
-1.469e-01,1.48
-1.467e-01,1.48
-1.466e-01,1.48
-1.464e-01,1.48
-1.462e-01,1.52
-1.461e-01,1.52
-1.459e-01,1.52
-1.458e-01,1.52
-1.456e-01,1.56
-1.454e-01,1.56
-1.453e-01,1.56
-1.451e-01,1.6
-1.450e-01,1.56
-1.448e-01,1.6
-1.446e-01,1.6
-1.445e-01,1.52
-1.443e-01,1.6
-1.442e-01,1.64
-1.440e-01,1.76
-1.438e-01,1.6
-1.437e-01,1.68
-1.435e-01,1.72
-1.434e-01,1.68
-1.432e-01,1.68
-1.430e-01,1.72
-1.429e-01,1.72
-1.427e-01,1.72
-1.426e-01,1.72
-1.424e-01,1.72
-1.422e-01,1.76
-1.421e-01,1.76
-1.419e-01,1.76
-1.418e-01,1.76
-1.416e-01,1.8
-1.414e-01,1.8
-1.413e-01,1.8
-1.411e-01,1.8
-1.410e-01,1.84
-1.408e-01,1.84
-1.406e-01,1.84
-1.405e-01,1.84
-1.403e-01,1.88
-1.402e-01,1.88
-1.400e-01,1.88
-1.398e-01,1.88
-1.397e-01,1.88
-1.395e-01,1.92
-1.394e-01,1.92
-1.392e-01,1.92
-1.390e-01,1.92
-1.389e-01,1.96
-1.387e-01,1.96
-1.386e-01,1.96
-1.384e-01,2
-1.382e-01,2.08
-1.381e-01,2
-1.379e-01,2.04
-1.378e-01,2.04
-1.376e-01,2
-1.374e-01,2.08
-1.373e-01,2.08
-1.371e-01,2.08
-1.370e-01,2.04
-1.368e-01,2.08
-1.366e-01,2.08
-1.365e-01,2.08
-1.363e-01,2.12
-1.362e-01,2.12
-1.360e-01,2.12
-1.358e-01,2.16
-1.357e-01,2.16
-1.355e-01,2.12
-1.354e-01,2.24
-1.352e-01,2.2
-1.350e-01,2.2
-1.349e-01,2.2
-1.347e-01,2.2
-1.346e-01,2.2
-1.344e-01,2.24
-1.342e-01,2.28
-1.341e-01,2.24
-1.339e-01,2.24
-1.338e-01,2.28
-1.336e-01,2.32
-1.334e-01,2.28
-1.333e-01,2.28
-1.331e-01,2.28
-1.330e-01,2.32
-1.328e-01,2.32
-1.326e-01,2.36
-1.325e-01,2.32
-1.323e-01,2.28
-1.322e-01,2.4
-1.320e-01,2.36
-1.318e-01,2.36
-1.317e-01,2.4
-1.315e-01,2.4
-1.314e-01,2.4
-1.312e-01,2.4
-1.310e-01,2.44
-1.309e-01,2.44
-1.307e-01,2.44
-1.306e-01,2.44
-1.304e-01,2.48
-1.302e-01,2.48
-1.301e-01,2.48
-1.299e-01,2.52
-1.298e-01,2.48
-1.296e-01,2.52
-1.294e-01,2.52
-1.293e-01,2.56
-1.291e-01,2.56
-1.290e-01,2.56
-1.288e-01,2.56
-1.286e-01,2.6
-1.285e-01,2.56
-1.283e-01,2.56
-1.282e-01,2.6
-1.280e-01,2.64
-1.278e-01,2.64
-1.277e-01,2.6
-1.275e-01,2.64
-1.274e-01,2.68
-1.272e-01,2.76
-1.270e-01,2.68
-1.269e-01,2.68
-1.267e-01,2.68
-1.266e-01,2.68
-1.264e-01,2.72
-1.262e-01,2.72
-1.261e-01,2.72
-1.259e-01,2.76
-1.258e-01,2.76
-1.256e-01,2.76
-1.254e-01,2.76
-1.253e-01,2.76
-1.251e-01,2.8
-1.250e-01,2.8
-1.248e-01,2.8
-1.246e-01,2.8
-1.245e-01,2.8
-1.243e-01,2.84
-1.242e-01,2.84
-1.240e-01,2.88
-1.238e-01,2.84
-1.237e-01,2.88
-1.235e-01,2.88
-1.234e-01,2.88
-1.232e-01,2.92
-1.230e-01,2.92
-1.229e-01,2.92
-1.227e-01,2.92
-1.226e-01,2.92
-1.224e-01,2.96
-1.222e-01,3
-1.221e-01,2.96
-1.219e-01,2.96
-1.218e-01,2.96
-1.216e-01,2.96
-1.214e-01,2.96
-1.213e-01,2.96
-1.211e-01,2.96
-1.210e-01,2.92
-1.208e-01,2.92
-1.206e-01,2.92
-1.205e-01,2.88
-1.203e-01,2.88
-1.202e-01,2.88
-1.200e-01,2.88
-1.198e-01,2.84
-1.197e-01,2.84
-1.195e-01,2.84
-1.194e-01,2.84
-1.192e-01,2.8
-1.190e-01,2.84
-1.189e-01,2.84
-1.187e-01,2.72
-1.186e-01,2.8
-1.184e-01,2.8
-1.182e-01,2.76
-1.181e-01,2.76
-1.179e-01,2.76
-1.178e-01,2.72
-1.176e-01,2.72
-1.174e-01,2.72
-1.173e-01,2.72
-1.171e-01,2.68
-1.170e-01,2.68
-1.168e-01,2.68
-1.166e-01,2.68
-1.165e-01,2.68
-1.163e-01,2.68
-1.162e-01,2.64
-1.160e-01,2.64
-1.158e-01,2.56
-1.157e-01,2.64
-1.155e-01,2.6
-1.154e-01,2.6
-1.152e-01,2.6
-1.150e-01,2.56
-1.149e-01,2.56
-1.147e-01,2.56
-1.146e-01,2.52
-1.144e-01,2.52
-1.142e-01,2.52
-1.141e-01,2.52
-1.139e-01,2.52
-1.138e-01,2.48
-1.136e-01,2.48
-1.134e-01,2.48
-1.133e-01,2.48
-1.131e-01,2.48
-1.130e-01,2.44
-1.128e-01,2.44
-1.126e-01,2.44
-1.125e-01,2.4
-1.123e-01,2.4
-1.122e-01,2.4
-1.120e-01,2.36
-1.118e-01,2.36
-1.117e-01,2.4
-1.115e-01,2.36
-1.114e-01,2.4
-1.112e-01,2.36
-1.110e-01,2.32
-1.109e-01,2.44
-1.107e-01,2.32
-1.106e-01,2.32
-1.104e-01,2.28
-1.102e-01,2.24
-1.101e-01,2.28
-1.099e-01,2.28
-1.098e-01,2.28
-1.096e-01,2.28
-1.094e-01,2.24
-1.093e-01,2.24
-1.091e-01,2.24
-1.090e-01,2.2
-1.088e-01,2.2
-1.086e-01,2.2
-1.085e-01,2.2
-1.083e-01,2.16
-1.082e-01,2.16
-1.080e-01,2.16
-1.078e-01,2.12
-1.077e-01,2.12
-1.075e-01,2.12
-1.074e-01,2.12
-1.072e-01,2.12
-1.070e-01,2.12
-1.069e-01,2.08
-1.067e-01,2.04
-1.066e-01,2.08
-1.064e-01,2.04
-1.062e-01,2.04
-1.061e-01,2.04
-1.059e-01,2.04
-1.058e-01,1.96
-1.056e-01,2
-1.054e-01,2
-1.053e-01,1.96
-1.051e-01,2
-1.050e-01,2
-1.048e-01,1.96
-1.046e-01,1.96
-1.045e-01,1.92
-1.043e-01,1.96
-1.042e-01,1.8
-1.040e-01,1.92
-1.038e-01,2
-1.037e-01,1.84
-1.035e-01,1.88
-1.034e-01,1.84
-1.032e-01,1.88
-1.030e-01,1.88
-1.029e-01,1.92
-1.027e-01,1.84
-1.026e-01,1.84
-1.024e-01,1.76
-1.022e-01,1.76
-1.021e-01,1.8
-1.019e-01,1.84
-1.018e-01,1.76
-1.016e-01,1.76
-1.014e-01,1.76
-1.013e-01,1.76
-1.011e-01,1.76
-1.010e-01,1.72
-1.008e-01,1.72
-1.006e-01,1.72
-1.005e-01,1.68
-1.003e-01,1.72
-1.002e-01,1.68
-1.000e-01,1.68
-9.984e-02,1.68
-9.968e-02,1.64
-9.952e-02,1.64
-9.936e-02,1.6
-9.920e-02,1.6
-9.904e-02,1.6
-9.888e-02,1.6
-9.872e-02,1.6
-9.856e-02,1.6
-9.840e-02,1.56
-9.824e-02,1.56
-9.808e-02,1.56
-9.792e-02,1.56
-9.776e-02,1.56
-9.760e-02,1.52
-9.744e-02,1.52
-9.728e-02,1.52
-9.712e-02,1.6
-9.696e-02,1.48
-9.680e-02,1.52
-9.664e-02,1.48
-9.648e-02,1.48
-9.632e-02,1.48
-9.616e-02,1.44
-9.600e-02,1.44
-9.584e-02,1.44
-9.568e-02,1.4
-9.552e-02,1.4
-9.536e-02,1.36
-9.520e-02,1.4
-9.504e-02,1.28
-9.488e-02,1.32
-9.472e-02,1.36
-9.456e-02,1.28
-9.440e-02,1.48
-9.424e-02,1.32
-9.408e-02,1.28
-9.392e-02,1.32
-9.376e-02,1.32
-9.360e-02,1.28
-9.344e-02,1.2
-9.328e-02,1.24
-9.312e-02,1.24
-9.296e-02,1.24
-9.280e-02,1.24
-9.264e-02,1.24
-9.248e-02,1.2
-9.232e-02,1.2
-9.216e-02,1.2
-9.200e-02,1.16
-9.184e-02,1.16
-9.168e-02,1.16
-9.152e-02,1.16
-9.136e-02,1.16
-9.120e-02,1.12
-9.104e-02,1.12
-9.088e-02,1.12
-9.072e-02,1.12
-9.056e-02,1.08
-9.040e-02,1.08
-9.024e-02,1.08
-9.008e-02,1.08
-8.992e-02,1.08
-8.976e-02,1.04
-8.960e-02,1.04
-8.944e-02,1.04
-8.928e-02,1.04
-8.912e-02,1
-8.896e-02,1
-8.880e-02,1
-8.864e-02,1.08
-8.848e-02,0.96
-8.832e-02,0.96
-8.816e-02,0.92
-8.800e-02,0.92
-8.784e-02,0.92
-8.768e-02,0.92
-8.752e-02,0.92
-8.736e-02,1.08
-8.720e-02,0.88
-8.704e-02,0.92
-8.688e-02,0.88
-8.672e-02,0.88
-8.656e-02,0.84
-8.640e-02,0.84
-8.624e-02,0.84
-8.608e-02,0.8
-8.592e-02,0.8
-8.576e-02,0.84
-8.560e-02,0.84
-8.544e-02,0.8
-8.528e-02,0.76
-8.512e-02,0.72
-8.496e-02,0.76
-8.480e-02,0.76
-8.464e-02,0.8
-8.448e-02,0.72
-8.432e-02,0.72
-8.416e-02,0.72
-8.400e-02,0.72
-8.384e-02,0.72
-8.368e-02,0.72
-8.352e-02,0.72
-8.336e-02,0.68
-8.320e-02,0.68
-8.304e-02,0.64
-8.288e-02,0.68
-8.272e-02,0.64
-8.256e-02,0.6
-8.240e-02,0.64
-8.224e-02,0.6
-8.208e-02,0.6
-8.192e-02,0.6
-8.176e-02,0.56
-8.160e-02,0.56
-8.144e-02,0.6
-8.128e-02,0.52
-8.112e-02,0.52
-8.096e-02,0.52
-8.080e-02,0.6
-8.064e-02,0.48
-8.048e-02,0.48
-8.032e-02,0.48
-8.016e-02,0.48
-8.000e-02,0.48
-7.984e-02,0.44
-7.968e-02,0.44
-7.952e-02,0.44
-7.936e-02,0.44
-7.920e-02,0.44
-7.904e-02,0.4
-7.888e-02,0.4
-7.872e-02,0.4
-7.856e-02,0.4
-7.840e-02,0.36
-7.824e-02,0.36
-7.808e-02,0.36
-7.792e-02,0.36
-7.776e-02,0.4
-7.760e-02,0.32
-7.744e-02,0.32
-7.728e-02,0.32
-7.712e-02,0.28
-7.696e-02,0.36
-7.680e-02,0.28
-7.664e-02,0.28
-7.648e-02,0.2
-7.632e-02,0.24
-7.616e-02,0.24
-7.600e-02,0.2
-7.584e-02,0.24
-7.568e-02,0.2
-7.552e-02,0.2
-7.536e-02,0.2
-7.520e-02,0.2
-7.504e-02,0.2
-7.488e-02,0.16
-7.472e-02,0.16
-7.456e-02,0.16
-7.440e-02,0.12
-7.424e-02,0.16
-7.408e-02,0.08
-7.392e-02,0.12
-7.376e-02,0.08
-7.360e-02,0.08
-7.344e-02,0.08
-7.328e-02,0.08
-7.312e-02,0.04
-7.296e-02,0.04
-7.280e-02,0.04
-7.264e-02,0.08
-7.248e-02,0.04
-7.232e-02,0
-7.216e-02,0
-7.200e-02,0.04
-7.184e-02,0
-7.168e-02,0.08
-7.152e-02,0.04
-7.136e-02,0
-7.120e-02,0
-7.104e-02,0.04
-7.088e-02,0.04
-7.072e-02,0.08
-7.056e-02,0.04
-7.040e-02,0.08
-7.024e-02,0.08
-7.008e-02,0.08
-6.992e-02,0.12
-6.976e-02,0.12
-6.960e-02,0.12
-6.944e-02,0.12
-6.928e-02,0.12
-6.912e-02,0.16
-6.896e-02,0.16
-6.880e-02,0.2
-6.864e-02,0.16
-6.848e-02,0.08
-6.832e-02,0.2
-6.816e-02,0.24
-6.800e-02,0.24
-6.784e-02,0.2
-6.768e-02,0.2
-6.752e-02,0.24
-6.736e-02,0.24
-6.720e-02,0.24
-6.704e-02,0.24
-6.688e-02,0.32
-6.672e-02,0.32
-6.656e-02,0.28
-6.640e-02,0.36
-6.624e-02,0.4
-6.608e-02,0.28
-6.592e-02,0.32
-6.576e-02,0.36
-6.560e-02,0.36
-6.544e-02,0.36
-6.528e-02,0.36
-6.512e-02,0.4
-6.496e-02,0.4
-6.480e-02,0.4
-6.464e-02,0.4
-6.448e-02,0.4
-6.432e-02,0.44
-6.416e-02,0.44
-6.400e-02,0.44
-6.384e-02,0.44
-6.368e-02,0.48
-6.352e-02,0.48
-6.336e-02,0.48
-6.320e-02,0.52
-6.304e-02,0.52
-6.288e-02,0.48
-6.272e-02,0.56
-6.256e-02,0.56
-6.240e-02,0.56
-6.224e-02,0.6
-6.208e-02,0.56
-6.192e-02,0.6
-6.176e-02,0.6
-6.160e-02,0.6
-6.144e-02,0.52
-6.128e-02,0.64
-6.112e-02,0.6
-6.096e-02,0.64
-6.080e-02,0.6
-6.064e-02,0.64
-6.048e-02,0.64
-6.032e-02,0.68
-6.016e-02,0.56
-6.000e-02,0.72
-5.984e-02,0.72
-5.968e-02,0.72
-5.952e-02,0.72
-5.936e-02,0.72
-5.920e-02,0.72
-5.904e-02,0.72
-5.888e-02,0.72
-5.872e-02,0.76
-5.856e-02,0.76
-5.840e-02,0.8
-5.824e-02,0.8
-5.808e-02,0.8
-5.792e-02,0.8
-5.776e-02,0.8
-5.760e-02,0.8
-5.744e-02,0.84
-5.728e-02,0.84
-5.712e-02,0.84
-5.696e-02,0.88
-5.680e-02,0.88
-5.664e-02,0.88
-5.648e-02,0.88
-5.632e-02,0.92
-5.616e-02,0.92
-5.600e-02,0.92
-5.584e-02,0.92
-5.568e-02,0.96
-5.552e-02,0.96
-5.536e-02,0.96
-5.520e-02,0.96
-5.504e-02,0.96
-5.488e-02,1
-5.472e-02,1
-5.456e-02,1
-5.440e-02,1.04
-5.424e-02,1.04
-5.408e-02,1
-5.392e-02,1.04
-5.376e-02,1.04
-5.360e-02,1.04
-5.344e-02,1.08
-5.328e-02,1.08
-5.312e-02,1.08
-5.296e-02,1.12
-5.280e-02,1.12
-5.264e-02,1.12
-5.248e-02,1.12
-5.232e-02,1.16
-5.216e-02,1.16
-5.200e-02,1.16
-5.184e-02,1.16
-5.168e-02,1.2
-5.152e-02,1.2
-5.136e-02,1.2
-5.120e-02,1.2
-5.104e-02,1.2
-5.088e-02,1.2
-5.072e-02,1.24
-5.056e-02,1.24
-5.040e-02,1.2
-5.024e-02,1.24
-5.008e-02,1.28
-4.992e-02,1.28
-4.976e-02,1.24
-4.960e-02,1.32
-4.944e-02,1.32
-4.928e-02,1.36
-4.912e-02,1.32
-4.896e-02,1.36
-4.880e-02,1.36
-4.864e-02,1.36
-4.848e-02,1.36
-4.832e-02,1.4
-4.816e-02,1.4
-4.800e-02,1.4
-4.784e-02,1.44
-4.768e-02,1.44
-4.752e-02,1.44
-4.736e-02,1.44
-4.720e-02,1.48
-4.704e-02,1.48
-4.688e-02,1.48
-4.672e-02,1.48
-4.656e-02,1.52
-4.640e-02,1.52
-4.624e-02,1.52
-4.608e-02,1.56
-4.592e-02,1.56
-4.576e-02,1.52
-4.560e-02,1.56
-4.544e-02,1.56
-4.528e-02,1.6
-4.512e-02,1.6
-4.496e-02,1.6
-4.480e-02,1.6
-4.464e-02,1.64
-4.448e-02,1.64
-4.432e-02,1.64
-4.416e-02,1.64
-4.400e-02,1.64
-4.384e-02,1.64
-4.368e-02,1.68
-4.352e-02,1.72
-4.336e-02,1.72
-4.320e-02,1.72
-4.304e-02,1.72
-4.288e-02,1.72
-4.272e-02,1.72
-4.256e-02,1.72
-4.240e-02,1.76
-4.224e-02,1.76
-4.208e-02,1.76
-4.192e-02,1.76
-4.176e-02,1.8
-4.160e-02,1.8
-4.144e-02,1.8
-4.128e-02,1.8
-4.112e-02,1.8
-4.096e-02,1.8
-4.080e-02,1.84
-4.064e-02,1.88
-4.048e-02,1.84
-4.032e-02,1.88
-4.016e-02,1.88
-4.000e-02,1.88
-3.984e-02,1.88
-3.968e-02,1.92
-3.952e-02,1.88
-3.936e-02,1.92
-3.920e-02,1.92
-3.904e-02,1.96
-3.888e-02,1.96
-3.872e-02,1.96
-3.856e-02,2
-3.840e-02,2
-3.824e-02,2
-3.808e-02,2
-3.792e-02,1.96
-3.776e-02,2
-3.760e-02,2.04
-3.744e-02,2.04
-3.728e-02,2.16
-3.712e-02,2.08
-3.696e-02,2.08
-3.680e-02,2.08
-3.664e-02,2.12
-3.648e-02,2.08
-3.632e-02,2.12
-3.616e-02,2.12
-3.600e-02,2.2
-3.584e-02,2.12
-3.568e-02,2.16
-3.552e-02,2.2
-3.536e-02,2.08
-3.520e-02,2.2
-3.504e-02,2.2
-3.488e-02,2.2
-3.472e-02,2.2
-3.456e-02,2.2
-3.440e-02,2.24
-3.424e-02,2.24
-3.408e-02,2.24
-3.392e-02,2.28
-3.376e-02,2.28
-3.360e-02,2.28
-3.344e-02,2.28
-3.328e-02,2.28
-3.312e-02,2.36
-3.296e-02,2.32
-3.280e-02,2.32
-3.264e-02,2.36
-3.248e-02,2.36
-3.232e-02,2.36
-3.216e-02,2.36
-3.200e-02,2.4
-3.184e-02,2.4
-3.168e-02,2.4
-3.152e-02,2.4
-3.136e-02,2.4
-3.120e-02,2.4
-3.104e-02,2.44
-3.088e-02,2.44
-3.072e-02,2.44
-3.056e-02,2.44
-3.040e-02,2.48
-3.024e-02,2.48
-3.008e-02,2.48
-2.992e-02,2.48
-2.976e-02,2.52
-2.960e-02,2.52
-2.944e-02,2.52
-2.928e-02,2.52
-2.912e-02,2.56
-2.896e-02,2.56
-2.880e-02,2.56
-2.864e-02,2.56
-2.848e-02,2.56
-2.832e-02,2.6
-2.816e-02,2.6
-2.800e-02,2.6
-2.784e-02,2.64
-2.768e-02,2.72
-2.752e-02,2.64
-2.736e-02,2.64
-2.720e-02,2.64
-2.704e-02,2.68
-2.688e-02,2.68
-2.672e-02,2.68
-2.656e-02,2.68
-2.640e-02,2.72
-2.624e-02,2.72
-2.608e-02,2.72
-2.592e-02,2.72
-2.576e-02,2.72
-2.560e-02,2.76
-2.544e-02,2.76
-2.528e-02,2.76
-2.512e-02,2.76
-2.496e-02,2.8
-2.480e-02,2.84
-2.464e-02,2.8
-2.448e-02,2.84
-2.432e-02,2.84
-2.416e-02,2.84
-2.400e-02,2.84
-2.384e-02,2.84
-2.368e-02,2.84
-2.352e-02,2.88
-2.336e-02,2.92
-2.320e-02,2.88
-2.304e-02,2.92
-2.288e-02,2.92
-2.272e-02,2.92
-2.256e-02,2.96
-2.240e-02,2.92
-2.224e-02,2.84
-2.208e-02,2.96
-2.192e-02,2.96
-2.176e-02,3
-2.160e-02,2.88
-2.144e-02,2.96
-2.128e-02,2.96
-2.112e-02,2.96
-2.096e-02,2.96
-2.080e-02,2.92
-2.064e-02,2.92
-2.048e-02,2.92
-2.032e-02,2.88
-2.016e-02,2.84
-2.000e-02,2.88
-1.984e-02,2.84
-1.968e-02,2.84
-1.952e-02,2.84
-1.936e-02,2.76
-1.920e-02,2.84
-1.904e-02,2.8
-1.888e-02,2.8
-1.872e-02,2.8
-1.856e-02,2.8
-1.840e-02,2.76
-1.824e-02,2.8
-1.808e-02,2.76
-1.792e-02,2.76
-1.776e-02,2.76
-1.760e-02,2.72
-1.744e-02,2.8
-1.728e-02,2.72
-1.712e-02,2.68
-1.696e-02,2.68
-1.680e-02,2.64
-1.664e-02,2.68
-1.648e-02,2.64
-1.632e-02,2.68
-1.616e-02,2.64
-1.600e-02,2.64
-1.584e-02,2.64
-1.568e-02,2.6
-1.552e-02,2.6
-1.536e-02,2.6
-1.520e-02,2.56
-1.504e-02,2.56
-1.488e-02,2.56
-1.472e-02,2.56
-1.456e-02,2.56
-1.440e-02,2.52
-1.424e-02,2.52
-1.408e-02,2.52
-1.392e-02,2.48
-1.376e-02,2.52
-1.360e-02,2.52
-1.344e-02,2.48
-1.328e-02,2.44
-1.312e-02,2.44
-1.296e-02,2.44
-1.280e-02,2.44
-1.264e-02,2.4
-1.248e-02,2.44
-1.232e-02,2.4
-1.216e-02,2.4
-1.200e-02,2.4
-1.184e-02,2.4
-1.168e-02,2.4
-1.152e-02,2.4
-1.136e-02,2.36
-1.120e-02,2.36
-1.104e-02,2.36
-1.088e-02,2.4
-1.072e-02,2.32
-1.056e-02,2.32
-1.040e-02,2.28
-1.024e-02,2.28
-1.008e-02,2.2
-9.920e-03,2.24
-9.760e-03,2.24
-9.600e-03,2.24
-9.440e-03,2.28
-9.280e-03,2.24
-9.120e-03,2.24
-8.960e-03,2.2
-8.800e-03,2.2
-8.640e-03,2.2
-8.480e-03,2.2
-8.320e-03,2.2
-8.160e-03,2.16
-8.000e-03,2.12
-7.840e-03,2.16
-7.680e-03,2.12
-7.520e-03,2.12
-7.360e-03,2.12
-7.200e-03,2.12
-7.040e-03,2.12
-6.880e-03,2.08
-6.720e-03,2.08
-6.560e-03,2.04
-6.400e-03,2.04
-6.240e-03,2.04
-6.080e-03,2.04
-5.920e-03,2
-5.760e-03,2.04
-5.600e-03,2.04
-5.440e-03,2
-5.280e-03,2
-5.120e-03,1.92
-4.960e-03,1.96
-4.800e-03,1.96
-4.640e-03,1.96
-4.480e-03,1.96
-4.320e-03,1.92
-4.160e-03,1.92
-4.000e-03,1.92
-3.840e-03,1.88
-3.680e-03,1.88
-3.520e-03,1.96
-3.360e-03,1.88
-3.200e-03,1.88
-3.040e-03,1.84
-2.880e-03,1.84
-2.720e-03,1.84
-2.560e-03,1.8
-2.400e-03,1.8
-2.240e-03,1.8
-2.080e-03,1.76
-1.920e-03,1.8
-1.760e-03,1.8
-1.600e-03,1.76
-1.440e-03,1.8
-1.280e-03,1.76
-1.120e-03,1.76
-9.600e-04,1.72
-8.000e-04,1.72
-6.400e-04,1.72
-4.800e-04,1.72
-3.200e-04,1.68
-1.600e-04,1.68
-3.793e-15,1.68
1.600e-04,1.64
3.200e-04,1.64
4.800e-04,1.64
6.400e-04,1.64
8.000e-04,1.64
9.600e-04,1.6
1.120e-03,1.6
1.280e-03,1.6
1.440e-03,1.56
1.600e-03,1.6
1.760e-03,1.56
1.920e-03,1.56
2.080e-03,1.52
2.240e-03,1.56
2.400e-03,1.52
2.560e-03,1.52
2.720e-03,1.52
2.880e-03,1.52
3.040e-03,1.48
3.200e-03,1.48
3.360e-03,1.48
3.520e-03,1.44
3.680e-03,1.44
3.840e-03,1.44
4.000e-03,1.44
4.160e-03,1.4
4.320e-03,1.4
4.480e-03,1.4
4.640e-03,1.4
4.800e-03,1.36
4.960e-03,1.44
5.120e-03,1.36
5.280e-03,1.36
5.440e-03,1.32
5.600e-03,1.4
5.760e-03,1.32
5.920e-03,1.32
6.080e-03,1.32
6.240e-03,1.28
6.400e-03,1.32
6.560e-03,1.28
6.720e-03,1.28
6.880e-03,1.24
7.040e-03,1.24
7.200e-03,1.24
7.360e-03,1.24
7.520e-03,1.24
7.680e-03,1.2
7.840e-03,1.24
8.000e-03,1.16
8.160e-03,1.16
8.320e-03,1.16
8.480e-03,1.12
8.640e-03,1.12
8.800e-03,1.12
8.960e-03,1.12
9.120e-03,1.12
9.280e-03,1.08
9.440e-03,1.08
9.600e-03,1.08
9.760e-03,1.08
9.920e-03,1.08
1.008e-02,1.04
1.024e-02,1.04
1.040e-02,1.04
1.056e-02,1.04
1.072e-02,1
1.088e-02,0.96
1.104e-02,1.04
1.120e-02,1
1.136e-02,0.96
1.152e-02,0.96
1.168e-02,0.92
1.184e-02,1
1.200e-02,1
1.216e-02,0.92
1.232e-02,0.92
1.248e-02,0.92
1.264e-02,0.88
1.280e-02,0.88
1.296e-02,0.88
1.312e-02,0.88
1.328e-02,0.8
1.344e-02,0.84
1.360e-02,0.84
1.376e-02,0.8
1.392e-02,0.84
1.408e-02,0.84
1.424e-02,0.8
1.440e-02,0.8
1.456e-02,0.64
1.472e-02,0.8
1.488e-02,0.76
1.504e-02,0.8
1.520e-02,0.88
1.536e-02,0.76
1.552e-02,0.72
1.568e-02,0.72
1.584e-02,0.72
1.600e-02,0.72
1.616e-02,0.72
1.632e-02,0.72
1.648e-02,0.64
1.664e-02,0.68
1.680e-02,0.68
1.696e-02,0.64
1.712e-02,0.68
1.728e-02,0.64
1.744e-02,0.64
1.760e-02,0.64
1.776e-02,0.6
1.792e-02,0.6
1.808e-02,0.56
1.824e-02,0.56
1.840e-02,0.6
1.856e-02,0.56
1.872e-02,0.56
1.888e-02,0.56
1.904e-02,0.56
1.920e-02,0.52
1.936e-02,0.48
1.952e-02,0.52
1.968e-02,0.48
1.984e-02,0.52
2.000e-02,0.48
2.016e-02,0.48
2.032e-02,0.44
2.048e-02,0.44
2.064e-02,0.4
2.080e-02,0.44
2.096e-02,0.4
2.112e-02,0.44
2.128e-02,0.4
2.144e-02,0.4
2.160e-02,0.4
2.176e-02,0.36
2.192e-02,0.4
2.208e-02,0.36
2.224e-02,0.36
2.240e-02,0.32
2.256e-02,0.32
2.272e-02,0.32
2.288e-02,0.28
2.304e-02,0.28
2.320e-02,0.32
2.336e-02,0.24
2.352e-02,0.24
2.368e-02,0.24
2.384e-02,0.2
2.400e-02,0.24
2.416e-02,0.2
2.432e-02,0.2
2.448e-02,0.2
2.464e-02,0.2
2.480e-02,0.16
2.496e-02,0.16
2.512e-02,0.16
2.528e-02,0.16
2.544e-02,0.16
2.560e-02,0.12
2.576e-02,0.16
2.592e-02,0.12
2.608e-02,0.12
2.624e-02,0.12
2.640e-02,0.12
2.656e-02,0.08
2.672e-02,0.08
2.688e-02,0.08
2.704e-02,0.08
2.720e-02,0.04
2.736e-02,-0.04
2.752e-02,0.04
2.768e-02,0.04
2.784e-02,0
2.800e-02,0.04
2.816e-02,0
2.832e-02,0
2.848e-02,0.16
2.864e-02,0.04
2.880e-02,0.12
2.896e-02,0.04
2.912e-02,0
2.928e-02,0.04
2.944e-02,0.08
2.960e-02,0.12
2.976e-02,0.12
2.992e-02,0.08
3.008e-02,0.12
3.024e-02,0.08
3.040e-02,0.08
3.056e-02,0.12
3.072e-02,0.16
3.088e-02,0.16
3.104e-02,0.16
3.120e-02,0.2
3.136e-02,0.16
3.152e-02,0.16
3.168e-02,0.2
3.184e-02,0.24
3.200e-02,0.2
3.216e-02,0.24
3.232e-02,0.24
3.248e-02,0.24
3.264e-02,0.24
3.280e-02,0.28
3.296e-02,0.24
3.312e-02,0.28
3.328e-02,0.28
3.344e-02,0.32
3.360e-02,0.32
3.376e-02,0.32
3.392e-02,0.32
3.408e-02,0.36
3.424e-02,0.36
3.440e-02,0.36
3.456e-02,0.36
3.472e-02,0.36
3.488e-02,0.4
3.504e-02,0.4
3.520e-02,0.4
3.536e-02,0.4
3.552e-02,0.4
3.568e-02,0.44
3.584e-02,0.6
3.600e-02,0.44
3.616e-02,0.44
3.632e-02,0.48
3.648e-02,0.48
3.664e-02,0.52
3.680e-02,0.48
3.696e-02,0.52
3.712e-02,0.52
3.728e-02,0.52
3.744e-02,0.52
3.760e-02,0.6
3.776e-02,0.56
3.792e-02,0.64
3.808e-02,0.52
3.824e-02,0.56
3.840e-02,0.56
3.856e-02,0.56
3.872e-02,0.6
3.888e-02,0.64
3.904e-02,0.64
3.920e-02,0.6
3.936e-02,0.64
3.952e-02,0.76
3.968e-02,0.68
3.984e-02,0.68
4.000e-02,0.68
4.016e-02,0.64
4.032e-02,0.72
4.048e-02,0.72
4.064e-02,0.72
4.080e-02,0.64
4.096e-02,0.76
4.112e-02,0.76
4.128e-02,0.76
4.144e-02,0.76
4.160e-02,0.8
4.176e-02,0.76
4.192e-02,0.8
4.208e-02,0.84
4.224e-02,0.8
4.240e-02,0.8
4.256e-02,0.8
4.272e-02,0.84
4.288e-02,0.84
4.304e-02,0.88
