Documentación/Laboratorio2/Archivos/SeñalSinusoidal.CSV

Model,TBS1102C
Firmware Version,v2015-08-04-prequal4ch70_v1.3

Point Format,Y
Horizontal Units,S
Horizontal Scale,0.02
Sample Interval,0.00016
Filter Frequency,2e+08
Record Length,2000
Gating,0.0% to 100.0%
Probe Attenuation,10
Vertical Units,V
Vertical Offset,0
Vertical Scale,1
Label,
TIME,CH1
-1.600e-01,2.56
-1.598e-01,2.56
-1.597e-01,2.56
-1.595e-01,2.56
-1.594e-01,2.52
-1.592e-01,2.48
-1.590e-01,2.52
-1.589e-01,2.48
-1.587e-01,2.48
-1.586e-01,2.48
-1.584e-01,2.56
-1.582e-01,2.4
-1.581e-01,2.44
-1.579e-01,2.44
-1.578e-01,2.4
-1.576e-01,2.4
-1.574e-01,2.4
-1.573e-01,2.56
-1.571e-01,2.36
-1.570e-01,2.32
-1.568e-01,2.32
-1.566e-01,2.32
-1.565e-01,2.32
-1.563e-01,2.28
-1.562e-01,2.28
-1.560e-01,2.28
-1.558e-01,2.28
-1.557e-01,2.28
-1.555e-01,2.24
-1.554e-01,2.24
-1.552e-01,2.2
-1.550e-01,2.2
-1.549e-01,2.16
-1.547e-01,2.16
-1.546e-01,2.16
-1.544e-01,2.12
-1.542e-01,2.12
-1.541e-01,2.12
-1.539e-01,2.12
-1.538e-01,2.08
-1.536e-01,2.08
-1.534e-01,2.04
-1.533e-01,2.04
-1.531e-01,2
-1.530e-01,2
-1.528e-01,2
-1.526e-01,1.96
-1.525e-01,1.96
-1.523e-01,1.88
-1.522e-01,2
-1.520e-01,1.92
-1.518e-01,1.92
-1.517e-01,1.88
-1.515e-01,1.88
-1.514e-01,1.84
-1.512e-01,1.84
-1.510e-01,1.84
-1.509e-01,1.84
-1.507e-01,1.84
-1.506e-01,1.8
-1.504e-01,1.72
-1.502e-01,1.72
-1.501e-01,1.76
-1.499e-01,1.72
-1.498e-01,1.72
-1.496e-01,1.68
-1.494e-01,1.68
-1.493e-01,1.6
-1.491e-01,1.6
-1.490e-01,1.64
-1.488e-01,1.64
-1.486e-01,1.6
-1.485e-01,1.56
-1.483e-01,1.6
-1.482e-01,1.56
-1.480e-01,1.56
-1.478e-01,1.52
-1.477e-01,1.52
-1.475e-01,1.48
-1.474e-01,1.48
-1.472e-01,1.48
-1.470e-01,1.44
-1.469e-01,1.4
-1.467e-01,1.36
-1.466e-01,1.4
-1.464e-01,1.4
-1.462e-01,1.36
-1.461e-01,1.36
-1.459e-01,1.36
-1.458e-01,1.32
-1.456e-01,1.32
-1.454e-01,1.28
-1.453e-01,1.24
-1.451e-01,1.28
-1.450e-01,1.24
-1.448e-01,1.24
-1.446e-01,1.24
-1.445e-01,1.2
-1.443e-01,1.16
-1.442e-01,1.16
-1.440e-01,1.16
-1.438e-01,1.12
-1.437e-01,1.12
-1.435e-01,1.12
-1.434e-01,1.12
-1.432e-01,1.04
-1.430e-01,1.08
-1.429e-01,1.04
-1.427e-01,1.04
-1.426e-01,1.04
-1.424e-01,1
-1.422e-01,1
-1.421e-01,1
-1.419e-01,0.92
-1.418e-01,0.92
-1.416e-01,0.92
-1.414e-01,0.92
-1.413e-01,0.96
-1.411e-01,0.92
-1.410e-01,0.88
-1.408e-01,0.88
-1.406e-01,0.88
-1.405e-01,0.84
-1.403e-01,0.84
-1.402e-01,0.84
-1.400e-01,0.76
-1.398e-01,0.84
-1.397e-01,0.76
-1.395e-01,0.8
-1.394e-01,0.76
-1.392e-01,0.76
-1.390e-01,0.72
-1.389e-01,0.72
-1.387e-01,0.72
-1.386e-01,0.68
-1.384e-01,0.68
-1.382e-01,0.64
-1.381e-01,0.64
-1.379e-01,0.68
-1.378e-01,0.6
-1.376e-01,0.64
-1.374e-01,0.6
-1.373e-01,0.6
-1.371e-01,0.6
-1.370e-01,0.56
-1.368e-01,0.56
-1.366e-01,0.52
-1.365e-01,0.52
-1.363e-01,0.52
-1.362e-01,0.52
-1.360e-01,0.48
-1.358e-01,0.48
-1.357e-01,0.44
-1.355e-01,0.48
-1.354e-01,0.44
-1.352e-01,0.44
-1.350e-01,0.4
-1.349e-01,0.44
-1.347e-01,0.4
-1.346e-01,0.4
-1.344e-01,0.24
-1.342e-01,0.36
-1.341e-01,0.36
-1.339e-01,0.4
-1.338e-01,0.32
-1.336e-01,0.32
-1.334e-01,0.32
-1.333e-01,0.24
-1.331e-01,0.32
-1.330e-01,0.28
-1.328e-01,0.32
-1.326e-01,0.28
-1.325e-01,0.24
-1.323e-01,0.24
-1.322e-01,0.28
-1.320e-01,0.32
-1.318e-01,0.28
-1.317e-01,0.28
-1.315e-01,0.2
-1.314e-01,0.2
-1.312e-01,0.2
-1.310e-01,0.16
-1.309e-01,0.2
-1.307e-01,0.16
-1.306e-01,0.2
-1.304e-01,0.2
-1.302e-01,0.2
-1.301e-01,0.16
-1.299e-01,0.16
-1.298e-01,0.12
-1.296e-01,0.12
-1.294e-01,0.12
-1.293e-01,0.08
-1.291e-01,0.16
-1.290e-01,0.08
-1.288e-01,0.08
-1.286e-01,0.08
-1.285e-01,0.08
-1.283e-01,0.12
-1.282e-01,0.08
-1.280e-01,0.08
-1.278e-01,0.08
-1.277e-01,0.08
-1.275e-01,0.04
-1.274e-01,0.04
-1.272e-01,0.04
-1.270e-01,0.04
-1.269e-01,0.04
-1.267e-01,0.04
-1.266e-01,0.04
-1.264e-01,0.04
-1.262e-01,0.04
-1.261e-01,0
-1.259e-01,0.04
-1.258e-01,0
-1.256e-01,0
-1.254e-01,0
-1.253e-01,0.04
-1.251e-01,0
-1.250e-01,0
-1.248e-01,0
-1.246e-01,0
-1.245e-01,0
-1.243e-01,0
-1.242e-01,0.16
-1.240e-01,-0.12
-1.238e-01,0
-1.237e-01,0
-1.235e-01,-0.04
-1.234e-01,-0.04
-1.232e-01,0
-1.230e-01,0
-1.229e-01,0
-1.227e-01,0
-1.226e-01,0
-1.224e-01,0
-1.222e-01,0
-1.221e-01,0
-1.219e-01,0
-1.218e-01,0
-1.216e-01,0
-1.214e-01,0
-1.213e-01,0.08
-1.211e-01,0.04
-1.210e-01,0
-1.208e-01,0
-1.206e-01,0
-1.205e-01,0
-1.203e-01,0
-1.202e-01,0
-1.200e-01,0
-1.198e-01,0
-1.197e-01,0
-1.195e-01,0
-1.194e-01,0.04
-1.192e-01,0.04
-1.190e-01,0
-1.189e-01,0.04
-1.187e-01,0
-1.186e-01,0.04
-1.184e-01,0.04
-1.182e-01,0.04
-1.181e-01,0
-1.179e-01,0.04
-1.178e-01,0.08
-1.176e-01,0.08
-1.174e-01,0.04
-1.173e-01,0.08
-1.171e-01,0.04
-1.170e-01,0.08
-1.168e-01,0.08
-1.166e-01,0.16
-1.165e-01,0.04
-1.163e-01,0.16
-1.162e-01,0
-1.160e-01,0.04
-1.158e-01,0.12
-1.157e-01,0.08
-1.155e-01,0.08
-1.154e-01,0.16
-1.152e-01,0.12
-1.150e-01,0.08
-1.149e-01,0.12
-1.147e-01,0.16
-1.146e-01,0.16
-1.144e-01,0.2
-1.142e-01,0.16
-1.141e-01,0.2
-1.139e-01,0.2
-1.138e-01,0.2
-1.136e-01,0.2
-1.134e-01,0.2
-1.133e-01,0.24
-1.131e-01,0.24
-1.130e-01,0.24
-1.128e-01,0.28
-1.126e-01,0.28
-1.125e-01,0.28
-1.123e-01,0.28
-1.122e-01,0.32
-1.120e-01,0.32
-1.118e-01,0.32
-1.117e-01,0.32
-1.115e-01,0.36
-1.114e-01,0.32
-1.112e-01,0.36
-1.110e-01,0.4
-1.109e-01,0.36
-1.107e-01,0.36
-1.106e-01,0.36
-1.104e-01,0.36
-1.102e-01,0.4
-1.101e-01,0.4
-1.099e-01,0.44
-1.098e-01,0.44
-1.096e-01,0.48
-1.094e-01,0.44
-1.093e-01,0.48
-1.091e-01,0.48
-1.090e-01,0.52
-1.088e-01,0.36
-1.086e-01,0.56
-1.085e-01,0.56
-1.083e-01,0.56
-1.082e-01,0.56
-1.080e-01,0.56
-1.078e-01,0.52
-1.077e-01,0.68
-1.075e-01,0.64
-1.074e-01,0.6
-1.072e-01,0.64
-1.070e-01,0.64
-1.069e-01,0.68
-1.067e-01,0.68
-1.066e-01,0.68
-1.064e-01,0.68
-1.062e-01,0.64
-1.061e-01,0.72
-1.059e-01,0.72
-1.058e-01,0.72
-1.056e-01,0.76
-1.054e-01,0.76
-1.053e-01,0.76
-1.051e-01,0.76
-1.050e-01,0.8
-1.048e-01,0.8
-1.046e-01,0.8
-1.045e-01,0.88
-1.043e-01,0.84
-1.042e-01,0.88
-1.040e-01,0.88
-1.038e-01,0.88
-1.037e-01,0.88
-1.035e-01,0.92
-1.034e-01,0.92
-1.032e-01,0.96
-1.030e-01,0.96
-1.029e-01,1
-1.027e-01,1
-1.026e-01,0.96
-1.024e-01,1.04
-1.022e-01,1.04
-1.021e-01,1.08
-1.019e-01,1.08
-1.018e-01,1.08
-1.016e-01,1.08
-1.014e-01,1.12
-1.013e-01,1.16
-1.011e-01,1.16
-1.010e-01,1.16
-1.008e-01,1.16
-1.006e-01,1.16
-1.005e-01,1.2
-1.003e-01,1.2
-1.002e-01,1.24
-1.000e-01,1.2
-9.984e-02,1.32
-9.968e-02,1.28
-9.952e-02,1.28
-9.936e-02,1.32
-9.920e-02,1.36
-9.904e-02,1.32
-9.888e-02,1.36
-9.872e-02,1.36
-9.856e-02,1.36
-9.840e-02,1.4
-9.824e-02,1.4
-9.808e-02,1.4
-9.792e-02,1.44
-9.776e-02,1.44
-9.760e-02,1.48
-9.744e-02,1.48
-9.728e-02,1.52
-9.712e-02,1.52
-9.696e-02,1.56
-9.680e-02,1.56
-9.664e-02,1.56
-9.648e-02,1.56
-9.632e-02,1.6
-9.616e-02,1.6
-9.600e-02,1.6
-9.584e-02,1.6
-9.568e-02,1.64
-9.552e-02,1.68
-9.536e-02,1.68
-9.520e-02,1.72
-9.504e-02,1.68
-9.488e-02,1.72
-9.472e-02,1.76
-9.456e-02,1.76
-9.440e-02,1.76
-9.424e-02,1.8
-9.408e-02,1.8
-9.392e-02,1.8
-9.376e-02,1.84
-9.360e-02,1.84
-9.344e-02,1.84
-9.328e-02,1.88
-9.312e-02,1.92
-9.296e-02,1.92
-9.280e-02,1.92
-9.264e-02,1.96
-9.248e-02,1.96
-9.232e-02,1.96
-9.216e-02,1.96
-9.200e-02,2
-9.184e-02,2
-9.168e-02,2.08
-9.152e-02,2.08
-9.136e-02,2.04
-9.120e-02,2.08
-9.104e-02,2.08
-9.088e-02,2.12
-9.072e-02,2.12
-9.056e-02,2.12
-9.040e-02,2.12
-9.024e-02,2.16
-9.008e-02,2.24
-8.992e-02,2.2
-8.976e-02,2.2
-8.960e-02,2.24
-8.944e-02,2.2
-8.928e-02,2.24
-8.912e-02,2.28
-8.896e-02,2.28
-8.880e-02,2.28
-8.864e-02,2.28
-8.848e-02,2.32
-8.832e-02,2.32
-8.816e-02,2.32
-8.800e-02,2.36
-8.784e-02,2.36
-8.768e-02,2.4
-8.752e-02,2.36
-8.736e-02,2.4
-8.720e-02,2.4
-8.704e-02,2.4
-8.688e-02,2.44
-8.672e-02,2.44
-8.656e-02,2.44
-8.640e-02,2.44
-8.624e-02,2.48
-8.608e-02,2.48
-8.592e-02,2.48
-8.576e-02,2.52
-8.560e-02,2.52
-8.544e-02,2.56
-8.528e-02,2.56
-8.512e-02,2.56
-8.496e-02,2.72
-8.480e-02,2.56
-8.464e-02,2.6
-8.448e-02,2.6
-8.432e-02,2.6
-8.416e-02,2.56
-8.400e-02,2.64
-8.384e-02,2.64
-8.368e-02,2.64
-8.352e-02,2.64
-8.336e-02,2.68
-8.320e-02,2.68
-8.304e-02,2.68
-8.288e-02,2.72
-8.272e-02,2.72
-8.256e-02,2.72
-8.240e-02,2.76
-8.224e-02,2.72
-8.208e-02,2.76
-8.192e-02,2.72
-8.176e-02,2.76
-8.160e-02,2.76
-8.144e-02,2.76
-8.128e-02,2.8
-8.112e-02,2.8
-8.096e-02,2.84
-8.080e-02,2.8
-8.064e-02,2.8
-8.048e-02,2.84
-8.032e-02,2.8
-8.016e-02,2.84
-8.000e-02,2.84
-7.984e-02,2.84
-7.968e-02,2.88
-7.952e-02,2.84
-7.936e-02,2.88
-7.920e-02,2.88
-7.904e-02,2.88
-7.888e-02,2.88
-7.872e-02,2.88
-7.856e-02,2.88
-7.840e-02,2.92
-7.824e-02,2.92
-7.808e-02,2.92
-7.792e-02,2.92
-7.776e-02,2.92
-7.760e-02,2.96
-7.744e-02,2.96
-7.728e-02,2.92
-7.712e-02,2.96
-7.696e-02,2.96
-7.680e-02,2.96
-7.664e-02,2.96
-7.648e-02,2.96
-7.632e-02,2.96
-7.616e-02,2.96
-7.600e-02,3
-7.584e-02,2.96
-7.568e-02,2.96
-7.552e-02,2.96
-7.536e-02,3
-7.520e-02,2.96
-7.504e-02,3
-7.488e-02,2.96
-7.472e-02,3
-7.456e-02,3
-7.440e-02,3
-7.424e-02,3
-7.408e-02,3
-7.392e-02,2.96
-7.376e-02,3
-7.360e-02,3
-7.344e-02,3
-7.328e-02,3
-7.312e-02,3.08
-7.296e-02,3
-7.280e-02,3
-7.264e-02,3
-7.248e-02,3
-7.232e-02,3
-7.216e-02,3
-7.200e-02,3
-7.184e-02,3
-7.168e-02,3
-7.152e-02,2.96
-7.136e-02,2.96
-7.120e-02,3.04
-7.104e-02,3
-7.088e-02,3
-7.072e-02,3
-7.056e-02,3
-7.040e-02,3
-7.024e-02,2.96
-7.008e-02,3
-6.992e-02,3
-6.976e-02,3
-6.960e-02,2.96
-6.944e-02,2.96
-6.928e-02,3
-6.912e-02,3
-6.896e-02,2.96
-6.880e-02,2.92
-6.864e-02,2.96
-6.848e-02,2.96
-6.832e-02,2.96
-6.816e-02,2.96
-6.800e-02,2.92
-6.784e-02,2.96
-6.768e-02,2.92
-6.752e-02,2.92
-6.736e-02,2.92
-6.720e-02,2.92
-6.704e-02,2.92
-6.688e-02,2.88
-6.672e-02,2.88
-6.656e-02,2.92
-6.640e-02,2.92
-6.624e-02,2.8
-6.608e-02,3
-6.592e-02,2.84
-6.576e-02,2.88
-6.560e-02,2.88
-6.544e-02,2.84
-6.528e-02,2.84
-6.512e-02,2.84
-6.496e-02,2.84
-6.480e-02,2.8
-6.464e-02,2.84
-6.448e-02,2.84
-6.432e-02,2.84
-6.416e-02,2.8
-6.400e-02,3
-6.384e-02,2.76
-6.368e-02,2.76
-6.352e-02,2.76
-6.336e-02,2.76
-6.320e-02,2.76
-6.304e-02,2.76
-6.288e-02,2.72
-6.272e-02,2.76
-6.256e-02,2.72
-6.240e-02,2.72
-6.224e-02,2.72
-6.208e-02,2.68
-6.192e-02,2.68
-6.176e-02,2.68
-6.160e-02,2.64
-6.144e-02,2.68
-6.128e-02,2.64
-6.112e-02,2.64
-6.096e-02,2.64
-6.080e-02,2.64
-6.064e-02,2.6
-6.048e-02,2.6
-6.032e-02,2.6
-6.016e-02,2.56
-6.000e-02,2.56
-5.984e-02,2.56
-5.968e-02,2.56
-5.952e-02,2.52
-5.936e-02,2.52
-5.920e-02,2.52
-5.904e-02,2.48
-5.888e-02,2.52
-5.872e-02,2.48
-5.856e-02,2.48
-5.840e-02,2.48
-5.824e-02,2.44
-5.808e-02,2.6
-5.792e-02,2.44
-5.776e-02,2.4
-5.760e-02,2.44
-5.744e-02,2.28
-5.728e-02,2.36
-5.712e-02,2.4
-5.696e-02,2.4
-5.680e-02,2.32
-5.664e-02,2.32
-5.648e-02,2.36
-5.632e-02,2.32
-5.616e-02,2.28
-5.600e-02,2.28
-5.584e-02,2.28
-5.568e-02,2.24
-5.552e-02,2.24
-5.536e-02,2.2
-5.520e-02,2.2
-5.504e-02,2.2
-5.488e-02,2.16
-5.472e-02,2.16
-5.456e-02,2.12
-5.440e-02,2.16
-5.424e-02,2.12
-5.408e-02,2.12
-5.392e-02,2.08
-5.376e-02,2.12
-5.360e-02,2.04
-5.344e-02,2.04
-5.328e-02,2.04
-5.312e-02,2
-5.296e-02,2
-5.280e-02,1.96
-5.264e-02,1.96
-5.248e-02,1.96
-5.232e-02,1.92
-5.216e-02,1.96
-5.200e-02,1.92
-5.184e-02,1.92
-5.168e-02,1.88
-5.152e-02,1.88
-5.136e-02,1.88
-5.120e-02,1.84
-5.104e-02,1.84
-5.088e-02,1.84
-5.072e-02,1.8
-5.056e-02,1.88
-5.040e-02,1.76
-5.024e-02,1.72
-5.008e-02,1.76
-4.992e-02,1.68
-4.976e-02,1.72
-4.960e-02,1.72
-4.944e-02,1.68
-4.928e-02,1.68
-4.912e-02,1.64
-4.896e-02,1.68
-4.880e-02,1.64
-4.864e-02,1.6
-4.848e-02,1.6
-4.832e-02,1.56
-4.816e-02,1.6
-4.800e-02,1.56
-4.784e-02,1.56
-4.768e-02,1.52
-4.752e-02,1.48
-4.736e-02,1.48
-4.720e-02,1.44
-4.704e-02,1.44
-4.688e-02,1.44
-4.672e-02,1.44
-4.656e-02,1.4
-4.640e-02,1.4
-4.624e-02,1.36
-4.608e-02,1.36
-4.592e-02,1.36
-4.576e-02,1.32
-4.560e-02,1.32
-4.544e-02,1.32
-4.528e-02,1.28
-4.512e-02,1.28
-4.496e-02,1.24
-4.480e-02,1.2
-4.464e-02,1.2
-4.448e-02,1.2
-4.432e-02,1.16
-4.416e-02,1.16
-4.400e-02,1.16
-4.384e-02,1.12
-4.368e-02,1.12
-4.352e-02,1.12
-4.336e-02,1.12
-4.320e-02,1.08
-4.304e-02,1.08
-4.288e-02,1.04
-4.272e-02,1.04
-4.256e-02,1.04
-4.240e-02,1
-4.224e-02,1
-4.208e-02,1
-4.192e-02,0.96
-4.176e-02,0.92
-4.160e-02,0.92
-4.144e-02,0.96
-4.128e-02,0.92
-4.112e-02,0.88
-4.096e-02,0.88
-4.080e-02,0.88
-4.064e-02,0.88
-4.048e-02,0.84
-4.032e-02,0.84
-4.016e-02,0.8
-4.000e-02,0.8
-3.984e-02,0.8
-3.968e-02,0.76
-3.952e-02,0.76
-3.936e-02,0.76
-3.920e-02,0.72
-3.904e-02,0.72
-3.888e-02,0.72
-3.872e-02,0.68
-3.856e-02,0.68
-3.840e-02,0.68
-3.824e-02,0.68
-3.808e-02,0.68
-3.792e-02,0.64
-3.776e-02,0.64
-3.760e-02,0.6
-3.744e-02,0.6
-3.728e-02,0.6
-3.712e-02,0.56
-3.696e-02,0.6
-3.680e-02,0.56
-3.664e-02,0.56
-3.648e-02,0.56
-3.632e-02,0.52
-3.616e-02,0.52
-3.600e-02,0.48
-3.584e-02,0.48
-3.568e-02,0.48
-3.552e-02,0.48
-3.536e-02,0.44
-3.520e-02,0.44
-3.504e-02,0.4
-3.488e-02,0.44
-3.472e-02,0.4
-3.456e-02,0.4
-3.440e-02,0.4
-3.424e-02,0.4
-3.408e-02,0.36
-3.392e-02,0.36
-3.376e-02,0.32
-3.360e-02,0.32
-3.344e-02,0.32
-3.328e-02,0.36
-3.312e-02,0.32
-3.296e-02,0.28
-3.280e-02,0.32
-3.264e-02,0.24
-3.248e-02,0.24
-3.232e-02,0.24
-3.216e-02,0.12
-3.200e-02,0.24
-3.184e-02,0.24
-3.168e-02,0.24
-3.152e-02,0.2
-3.136e-02,0.2
-3.120e-02,0.2
-3.104e-02,0.2
-3.088e-02,0.2
-3.072e-02,0.24
-3.056e-02,0.16
-3.040e-02,0.16
-3.024e-02,0.16
-3.008e-02,0.12
-2.992e-02,0.16
-2.976e-02,0.16
-2.960e-02,0.12
-2.944e-02,0.12
-2.928e-02,0.08
-2.912e-02,0.12
-2.896e-02,0.08
-2.880e-02,0.08
-2.864e-02,0.08
-2.848e-02,0.08
-2.832e-02,0.12
-2.816e-02,0.08
-2.800e-02,0
-2.784e-02,0.08
-2.768e-02,0.04
-2.752e-02,0.04
-2.736e-02,0.04
-2.720e-02,0.04
-2.704e-02,0.04
-2.688e-02,0.04
-2.672e-02,0.04
-2.656e-02,0
-2.640e-02,0.04
-2.624e-02,0.04
-2.608e-02,0
-2.592e-02,0.04
-2.576e-02,0
-2.560e-02,0
-2.544e-02,0
-2.528e-02,0
-2.512e-02,0.04
-2.496e-02,0
-2.480e-02,0
-2.464e-02,0
-2.448e-02,0
-2.432e-02,0
-2.416e-02,-0.04
-2.400e-02,0
-2.384e-02,0
-2.368e-02,0.04
-2.352e-02,0
-2.336e-02,0
-2.320e-02,-0.04
-2.304e-02,0
-2.288e-02,0
-2.272e-02,0
-2.256e-02,0
-2.240e-02,-0.04
-2.224e-02,0
-2.208e-02,0
-2.192e-02,0
-2.176e-02,0
-2.160e-02,-0.04
-2.144e-02,0
-2.128e-02,0
-2.112e-02,0
-2.096e-02,0
-2.080e-02,0
-2.064e-02,0
-2.048e-02,0
-2.032e-02,0
-2.016e-02,0
-2.000e-02,0
-1.984e-02,0
-1.968e-02,0.04
-1.952e-02,0.04
-1.936e-02,0
-1.920e-02,0.04
-1.904e-02,0.04
-1.888e-02,0.04
-1.872e-02,0.04
-1.856e-02,0
-1.840e-02,0.04
-1.824e-02,0.04
-1.808e-02,0.04
-1.792e-02,0.08
-1.776e-02,0.08
-1.760e-02,0.08
-1.744e-02,0.04
-1.728e-02,0.08
-1.712e-02,0.08
-1.696e-02,0.08
-1.680e-02,0.08
-1.664e-02,0.12
-1.648e-02,0.04
-1.632e-02,0.08
-1.616e-02,0.12
-1.600e-02,0.08
-1.584e-02,0.16
-1.568e-02,0.12
-1.552e-02,0.12
-1.536e-02,0.16
-1.520e-02,0.08
-1.504e-02,0.16
-1.488e-02,0.16
-1.472e-02,0.16
-1.456e-02,0.08
-1.440e-02,0.2
-1.424e-02,0.2
-1.408e-02,0.2
-1.392e-02,0.24
-1.376e-02,0.16
-1.360e-02,0.24
-1.344e-02,0.2
-1.328e-02,0.2
-1.312e-02,0.32
-1.296e-02,0.12
-1.280e-02,0.28
-1.264e-02,0.28
-1.248e-02,0.24
-1.232e-02,0.2
-1.216e-02,0.28
-1.200e-02,0.28
-1.184e-02,0.28
-1.168e-02,0.36
-1.152e-02,0.32
-1.136e-02,0.36
-1.120e-02,0.36
-1.104e-02,0.4
-1.088e-02,0.36
-1.072e-02,0.4
-1.056e-02,0.4
-1.040e-02,0.44
-1.024e-02,0.4
-1.008e-02,0.4
-9.920e-03,0.44
-9.760e-03,0.44
-9.600e-03,0.44
-9.440e-03,0.48
-9.280e-03,0.48
-9.120e-03,0.48
-8.960e-03,0.48
-8.800e-03,0.52
-8.640e-03,0.56
-8.480e-03,0.52
-8.320e-03,0.52
-8.160e-03,0.56
-8.000e-03,0.52
-7.840e-03,0.6
-7.680e-03,0.6
-7.520e-03,0.56
-7.360e-03,0.6
-7.200e-03,0.64
-7.040e-03,0.64
-6.880e-03,0.64
-6.720e-03,0.68
-6.560e-03,0.68
-6.400e-03,0.68
-6.240e-03,0.68
-6.080e-03,0.68
-5.920e-03,0.72
-5.760e-03,0.72
-5.600e-03,0.76
-5.440e-03,0.76
-5.280e-03,0.76
-5.120e-03,0.8
-4.960e-03,0.8
-4.800e-03,0.8
-4.640e-03,0.8
-4.480e-03,0.84
-4.320e-03,0.84
-4.160e-03,0.84
-4.000e-03,0.88
-3.840e-03,0.92
-3.680e-03,0.88
-3.520e-03,0.92
-3.360e-03,0.92
-3.200e-03,0.96
-3.040e-03,0.96
-2.880e-03,0.96
-2.720e-03,1
-2.560e-03,1.04
-2.400e-03,1.04
-2.240e-03,1.04
-2.080e-03,1.04
-1.920e-03,1
-1.760e-03,1.08
-1.600e-03,1.08
-1.440e-03,1.12
-1.280e-03,1.12
-1.120e-03,1.12
-9.600e-04,1.16
-8.000e-04,1.16
-6.400e-04,1.2
-4.800e-04,1.2
-3.200e-04,1.2
-1.600e-04,1.2
-3.793e-15,1.2
1.600e-04,1.24
3.200e-04,1.28
4.800e-04,1.32
6.400e-04,1.36
8.000e-04,1.32
9.600e-04,1.36
1.120e-03,1.36
1.280e-03,1.44
1.440e-03,1.4
1.600e-03,1.4
1.760e-03,1.4
1.920e-03,1.44
2.080e-03,1.48
2.240e-03,1.4
2.400e-03,1.48
2.560e-03,1.48
2.720e-03,1.44
2.880e-03,1.48
3.040e-03,1.6
3.200e-03,1.56
3.360e-03,1.56
3.520e-03,1.6
3.680e-03,1.6
3.840e-03,1.64
4.000e-03,1.68
4.160e-03,1.64
4.320e-03,1.64
4.480e-03,1.64
4.640e-03,1.68
4.800e-03,1.72
4.960e-03,1.72
5.120e-03,1.72
5.280e-03,1.76
5.440e-03,1.76
5.600e-03,1.76
5.760e-03,1.8
5.920e-03,1.8
6.080e-03,1.8
6.240e-03,1.84
6.400e-03,1.84
6.560e-03,1.84
6.720e-03,1.88
6.880e-03,1.88
7.040e-03,1.92
7.200e-03,1.92
7.360e-03,1.96
7.520e-03,1.96
7.680e-03,1.96
7.840e-03,2
8.000e-03,1.96
8.160e-03,2
8.320e-03,2
8.480e-03,2.08
8.640e-03,2.04
8.800e-03,2.08
8.960e-03,2.08
9.120e-03,2.12
9.280e-03,2.12
9.440e-03,2.12
9.600e-03,2.12
9.760e-03,2.16
9.920e-03,2.2
1.008e-02,2.2
1.024e-02,2.04
1.040e-02,2.2
1.056e-02,2.24
1.072e-02,2.24
1.088e-02,2.24
1.104e-02,2.28
1.120e-02,2.24
1.136e-02,2.28
1.152e-02,2.32
1.168e-02,2.32
1.184e-02,2.32
1.200e-02,2.32
1.216e-02,2.36
1.232e-02,2.36
1.248e-02,2.4
1.264e-02,2.4
1.280e-02,2.4
1.296e-02,2.4
1.312e-02,2.4
1.328e-02,2.44
1.344e-02,2.48
1.360e-02,2.44
1.376e-02,2.44
1.392e-02,2.48
1.408e-02,2.48
1.424e-02,2.48
1.440e-02,2.52
1.456e-02,2.52
1.472e-02,2.56
1.488e-02,2.52
1.504e-02,2.56
1.520e-02,2.56
1.536e-02,2.56
1.552e-02,2.52
1.568e-02,2.6
1.584e-02,2.6
1.600e-02,2.64
1.616e-02,2.64
1.632e-02,2.64
1.648e-02,2.64
1.664e-02,2.64
1.680e-02,2.64
1.696e-02,2.68
1.712e-02,2.68
1.728e-02,2.72
1.744e-02,2.68
1.760e-02,2.8
1.776e-02,2.72
1.792e-02,2.8
1.808e-02,2.8
1.824e-02,2.8
1.840e-02,2.76
1.856e-02,2.8
1.872e-02,2.76
1.888e-02,2.8
1.904e-02,2.68
1.920e-02,2.8
1.936e-02,2.84
1.952e-02,2.8
1.968e-02,2.92
1.984e-02,2.84
2.000e-02,2.84
2.016e-02,2.84
2.032e-02,2.88
2.048e-02,2.88
2.064e-02,2.88
2.080e-02,2.92
2.096e-02,2.88
2.112e-02,2.88
2.128e-02,2.88
2.144e-02,2.88
2.160e-02,2.92
2.176e-02,2.92
2.192e-02,2.92
2.208e-02,2.92
2.224e-02,2.92
2.240e-02,2.92
2.256e-02,2.96
2.272e-02,2.92
2.288e-02,2.96
2.304e-02,2.96
2.320e-02,2.96
2.336e-02,2.96
2.352e-02,2.96
2.368e-02,2.96
2.384e-02,2.96
2.400e-02,2.96
2.416e-02,2.96
2.432e-02,2.96
2.448e-02,2.96
2.464e-02,2.96
2.480e-02,3
2.496e-02,2.88
2.512e-02,2.96
2.528e-02,3.12
2.544e-02,3
2.560e-02,3.04
2.576e-02,2.96
2.592e-02,2.96
2.608e-02,3
2.624e-02,2.92
2.640e-02,3
2.656e-02,3
2.672e-02,3
2.688e-02,3
2.704e-02,3
2.720e-02,3
2.736e-02,3
2.752e-02,3
2.768e-02,3
2.784e-02,3
2.800e-02,3
2.816e-02,3
2.832e-02,3
2.848e-02,3
2.864e-02,3
2.880e-02,3
2.896e-02,3
2.912e-02,3
2.928e-02,3
2.944e-02,3
2.960e-02,3
2.976e-02,3
2.992e-02,3
3.008e-02,2.96
3.024e-02,3
3.040e-02,2.96
3.056e-02,2.96
3.072e-02,2.88
3.088e-02,3
3.104e-02,2.96
3.120e-02,2.96
3.136e-02,2.92
3.152e-02,2.96
3.168e-02,2.96
3.184e-02,2.92
3.200e-02,2.96
3.216e-02,2.64
3.232e-02,2.96
3.248e-02,2.92
3.264e-02,2.92
3.280e-02,2.92
3.296e-02,2.92
3.312e-02,2.92
3.328e-02,2.92
3.344e-02,2.92
3.360e-02,2.92
3.376e-02,2.92
3.392e-02,2.88
3.408e-02,2.92
3.424e-02,2.88
3.440e-02,2.88
3.456e-02,2.84
3.472e-02,2.88
3.488e-02,2.84
3.504e-02,2.84
3.520e-02,2.84
3.536e-02,2.84
3.552e-02,2.84
3.568e-02,2.84
3.584e-02,2.8
3.600e-02,2.8
3.616e-02,2.8
3.632e-02,2.8
3.648e-02,2.8
3.664e-02,2.76
3.680e-02,2.76
3.696e-02,2.72
3.712e-02,2.76
3.728e-02,2.72
3.744e-02,2.72
3.760e-02,2.72
3.776e-02,2.72
3.792e-02,2.72
3.808e-02,2.72
3.824e-02,2.68
3.840e-02,2.68
3.856e-02,2.68
3.872e-02,2.68
3.888e-02,2.64
3.904e-02,2.64
3.920e-02,2.6
3.936e-02,2.6
3.952e-02,2.6
3.968e-02,2.6
3.984e-02,2.6
4.000e-02,2.6
4.016e-02,2.56
4.032e-02,2.52
4.048e-02,2.52
4.064e-02,2.52
4.080e-02,2.52
4.096e-02,2.52
4.112e-02,2.44
4.128e-02,2.56
4.144e-02,2.44
4.160e-02,2.4
4.176e-02,2.44
4.192e-02,2.44
4.208e-02,2.4
4.224e-02,2.4
4.240e-02,2.36
4.256e-02,2.36
4.272e-02,2.36
4.288e-02,2.36
4.304e-02,2.36
4.320e-02,2.32
4.336e-02,2.32
4.352e-02,2.32
4.368e-02,2.32
4.384e-02,2.28
4.400e-02,2.28
4.416e-02,2.28
4.432e-02,2.24
4.448e-02,2.24
4.464e-02,2.2
4.480e-02,2.2
4.496e-02,2.2
4.512e-02,2.16
4.528e-02,2.16
4.544e-02,2.16
4.560e-02,2.16
4.576e-02,2.12
4.592e-02,2.12
4.608e-02,2.08
